﻿		{AE75C293-4436-4E20-A846-F382656DAC2B}.Ad-Hoc|Any CPU.ActiveCfg = Release|Any CPU
		{AE75C293-4436-4E20-A846-F382656DAC2B}.Ad-Hoc|Any CPU.Build.0 = Release|Any CPU
		{AE75C293-4436-4E20-A846-F382656DAC2B}.Ad-Hoc|ARM.ActiveCfg = Release|Any CPU
		{AE75C293-4436-4E20-A846-F382656DAC2B}.Ad-Hoc|ARM.Build.0 = Release|Any CPU
		{AE75C293-4436-4E20-A846-F382656DAC2B}.Ad-Hoc|iPhone.ActiveCfg = Release|Any CPU
		{AE75C293-4436-4E20-A846-F382656DAC2B}.Ad-Hoc|iPhone.Build.0 = Release|Any CPU
		{AE75C293-4436-4E20-A846-F382656DAC2B}.Ad-Hoc|iPhoneSimulator.ActiveCfg = Release|Any CPU
		{AE75C293-4436-4E20-A846-F382656DAC2B}.Ad-Hoc|iPhoneSimulator.Build.0 = Release|Any CPU
		{AE75C293-4436-4E20-A846-F382656DAC2B}.Ad-Hoc|Mixed Platforms.ActiveCfg = Release|Any CPU
		{AE75C293-4436-4E20-A846-F382656DAC2B}.Ad-Hoc|Mixed Platforms.Build.0 = Release|Any CPU
		{AE75C293-4436-4E20-A846-F382656DAC2B}.Ad-Hoc|x64.ActiveCfg = Release|Any CPU
		{AE75C293-4436-4E20-A846-F382656DAC2B}.Ad-Hoc|x64.Build.0 = Release|Any CPU
		{AE75C293-4436-4E20-A846-F382656DAC2B}.Ad-Hoc|x86.ActiveCfg = Release|Any CPU
		{AE75C293-4436-4E20-A846-F382656DAC2B}.Ad-Hoc|x86.Build.0 = Release|Any CPU
		{AE75C293-4436-4E20-A846-F382656DAC2B}.AppStore|Any CPU.ActiveCfg = Release|Any CPU
		{AE75C293-4436-4E20-A846-F382656DAC2B}.AppStore|Any CPU.Build.0 = Release|Any CPU
		{AE75C293-4436-4E20-A846-F382656DAC2B}.AppStore|ARM.ActiveCfg = Release|Any CPU
		{AE75C293-4436-4E20-A846-F382656DAC2B}.AppStore|ARM.Build.0 = Release|Any CPU
		{AE75C293-4436-4E20-A846-F382656DAC2B}.AppStore|iPhone.ActiveCfg = Release|Any CPU
		{AE75C293-4436-4E20-A846-F382656DAC2B}.AppStore|iPhone.Build.0 = Release|Any CPU
		{AE75C293-4436-4E20-A846-F382656DAC2B}.AppStore|iPhoneSimulator.ActiveCfg = Release|Any CPU
		{AE75C293-4436-4E20-A846-F382656DAC2B}.AppStore|iPhoneSimulator.Build.0 = Release|Any CPU
		{AE75C293-4436-4E20-A846-F382656DAC2B}.AppStore|Mixed Platforms.ActiveCfg = Release|Any CPU
		{AE75C293-4436-4E20-A846-F382656DAC2B}.AppStore|Mixed Platforms.Build.0 = Release|Any CPU
		{AE75C293-4436-4E20-A846-F382656DAC2B}.AppStore|x64.ActiveCfg = Release|Any CPU
		{AE75C293-4436-4E20-A846-F382656DAC2B}.AppStore|x64.Build.0 = Release|Any CPU
		{AE75C293-4436-4E20-A846-F382656DAC2B}.AppStore|x86.ActiveCfg = Release|Any CPU
		{AE75C293-4436-4E20-A846-F382656DAC2B}.AppStore|x86.Build.0 = Release|Any CPU
		{AE75C293-4436-4E20-A846-F382656DAC2B}.Debug|Any CPU.ActiveCfg = Debug|Any CPU
		{AE75C293-4436-4E20-A846-F382656DAC2B}.Debug|Any CPU.Build.0 = Debug|Any CPU
		{AE75C293-4436-4E20-A846-F382656DAC2B}.Debug|ARM.ActiveCfg = Debug|Any CPU
		{AE75C293-4436-4E20-A846-F382656DAC2B}.Debug|ARM.Build.0 = Debug|Any CPU
		{AE75C293-4436-4E20-A846-F382656DAC2B}.Debug|iPhone.ActiveCfg = Debug|Any CPU
		{AE75C293-4436-4E20-A846-F382656DAC2B}.Debug|iPhone.Build.0 = Debug|Any CPU
		{AE75C293-4436-4E20-A846-F382656DAC2B}.Debug|iPhoneSimulator.ActiveCfg = Debug|Any CPU
		{AE75C293-4436-4E20-A846-F382656DAC2B}.Debug|iPhoneSimulator.Build.0 = Debug|Any CPU
		{AE75C293-4436-4E20-A846-F382656DAC2B}.Debug|Mixed Platforms.ActiveCfg = Debug|Any CPU
		{AE75C293-4436-4E20-A846-F382656DAC2B}.Debug|Mixed Platforms.Build.0 = Debug|Any CPU
		{AE75C293-4436-4E20-A846-F382656DAC2B}.Debug|x64.ActiveCfg = Debug|Any CPU
		{AE75C293-4436-4E20-A846-F382656DAC2B}.Debug|x64.Build.0 = Debug|Any CPU
		{AE75C293-4436-4E20-A846-F382656DAC2B}.Debug|x86.ActiveCfg = Debug|Any CPU
		{AE75C293-4436-4E20-A846-F382656DAC2B}.Debug|x86.Build.0 = Debug|Any CPU
		{AE75C293-4436-4E20-A846-F382656DAC2B}.Dev|Any CPU.ActiveCfg = Debug|Any CPU
		{AE75C293-4436-4E20-A846-F382656DAC2B}.Dev|Any CPU.Build.0 = Debug|Any CPU
		{AE75C293-4436-4E20-A846-F382656DAC2B}.Dev|ARM.ActiveCfg = Debug|Any CPU
		{AE75C293-4436-4E20-A846-F382656DAC2B}.Dev|ARM.Build.0 = Debug|Any CPU
		{AE75C293-4436-4E20-A846-F382656DAC2B}.Dev|iPhone.ActiveCfg = Debug|Any CPU
		{AE75C293-4436-4E20-A846-F382656DAC2B}.Dev|iPhone.Build.0 = Debug|Any CPU
		{AE75C293-4436-4E20-A846-F382656DAC2B}.Dev|iPhoneSimulator.ActiveCfg = Debug|Any CPU
		{AE75C293-4436-4E20-A846-F382656DAC2B}.Dev|iPhoneSimulator.Build.0 = Debug|Any CPU
		{AE75C293-4436-4E20-A846-F382656DAC2B}.Dev|Mixed Platforms.ActiveCfg = Debug|Any CPU
		{AE75C293-4436-4E20-A846-F382656DAC2B}.Dev|Mixed Platforms.Build.0 = Debug|Any CPU
		{AE75C293-4436-4E20-A846-F382656DAC2B}.Dev|x64.ActiveCfg = Debug|Any CPU
		{AE75C293-4436-4E20-A846-F382656DAC2B}.Dev|x64.Build.0 = Debug|Any CPU
		{AE75C293-4436-4E20-A846-F382656DAC2B}.Dev|x86.ActiveCfg = Debug|Any CPU
		{AE75C293-4436-4E20-A846-F382656DAC2B}.Dev|x86.Build.0 = Debug|Any CPU
		{AE75C293-4436-4E20-A846-F382656DAC2B}.Prod|Any CPU.ActiveCfg = Release|Any CPU
		{AE75C293-4436-4E20-A846-F382656DAC2B}.Prod|Any CPU.Build.0 = Release|Any CPU
		{AE75C293-4436-4E20-A846-F382656DAC2B}.Prod|ARM.ActiveCfg = Release|Any CPU
		{AE75C293-4436-4E20-A846-F382656DAC2B}.Prod|ARM.Build.0 = Release|Any CPU
		{AE75C293-4436-4E20-A846-F382656DAC2B}.Prod|iPhone.ActiveCfg = Release|Any CPU
		{AE75C293-4436-4E20-A846-F382656DAC2B}.Prod|iPhone.Build.0 = Release|Any CPU
		{AE75C293-4436-4E20-A846-F382656DAC2B}.Prod|iPhoneSimulator.ActiveCfg = Release|Any CPU
		{AE75C293-4436-4E20-A846-F382656DAC2B}.Prod|iPhoneSimulator.Build.0 = Release|Any CPU
		{AE75C293-4436-4E20-A846-F382656DAC2B}.Prod|Mixed Platforms.ActiveCfg = Release|Any CPU
		{AE75C293-4436-4E20-A846-F382656DAC2B}.Prod|Mixed Platforms.Build.0 = Release|Any CPU
		{AE75C293-4436-4E20-A846-F382656DAC2B}.Prod|x64.ActiveCfg = Release|Any CPU
		{AE75C293-4436-4E20-A846-F382656DAC2B}.Prod|x64.Build.0 = Release|Any CPU
		{AE75C293-4436-4E20-A846-F382656DAC2B}.Prod|x86.ActiveCfg = Release|Any CPU
		{AE75C293-4436-4E20-A846-F382656DAC2B}.Prod|x86.Build.0 = Release|Any CPU
		{AE75C293-4436-4E20-A846-F382656DAC2B}.Release|Any CPU.ActiveCfg = Release|Any CPU
		{AE75C293-4436-4E20-A846-F382656DAC2B}.Release|Any CPU.Build.0 = Release|Any CPU
		{AE75C293-4436-4E20-A846-F382656DAC2B}.Release|ARM.ActiveCfg = Release|Any CPU
		{AE75C293-4436-4E20-A846-F382656DAC2B}.Release|ARM.Build.0 = Release|Any CPU
		{AE75C293-4436-4E20-A846-F382656DAC2B}.Release|iPhone.ActiveCfg = Release|Any CPU
		{AE75C293-4436-4E20-A846-F382656DAC2B}.Release|iPhone.Build.0 = Release|Any CPU
		{AE75C293-4436-4E20-A846-F382656DAC2B}.Release|iPhoneSimulator.ActiveCfg = Release|Any CPU
		{AE75C293-4436-4E20-A846-F382656DAC2B}.Release|iPhoneSimulator.Build.0 = Release|Any CPU
		{AE75C293-4436-4E20-A846-F382656DAC2B}.Release|Mixed Platforms.ActiveCfg = Release|Any CPU
		{AE75C293-4436-4E20-A846-F382656DAC2B}.Release|Mixed Platforms.Build.0 = Release|Any CPU
		{AE75C293-4436-4E20-A846-F382656DAC2B}.Release|x64.ActiveCfg = Release|Any CPU
		{AE75C293-4436-4E20-A846-F382656DAC2B}.Release|x64.Build.0 = Release|Any CPU
		{AE75C293-4436-4E20-A846-F382656DAC2B}.Release|x86.ActiveCfg = Release|Any CPU
		{AE75C293-4436-4E20-A846-F382656DAC2B}.Release|x86.Build.0 = Release|Any CPU
		{AE75C293-4436-4E20-A846-F382656DAC2B}.Staging|Any CPU.ActiveCfg = Release|Any CPU
		{AE75C293-4436-4E20-A846-F382656DAC2B}.Staging|Any CPU.Build.0 = Release|Any CPU
		{AE75C293-4436-4E20-A846-F382656DAC2B}.Staging|ARM.ActiveCfg = Release|Any CPU
		{AE75C293-4436-4E20-A846-F382656DAC2B}.Staging|ARM.Build.0 = Release|Any CPU
		{AE75C293-4436-4E20-A846-F382656DAC2B}.Staging|iPhone.ActiveCfg = Release|Any CPU
		{AE75C293-4436-4E20-A846-F382656DAC2B}.Staging|iPhone.Build.0 = Release|Any CPU
		{AE75C293-4436-4E20-A846-F382656DAC2B}.Staging|iPhoneSimulator.ActiveCfg = Release|Any CPU
		{AE75C293-4436-4E20-A846-F382656DAC2B}.Staging|iPhoneSimulator.Build.0 = Release|Any CPU
		{AE75C293-4436-4E20-A846-F382656DAC2B}.Staging|Mixed Platforms.ActiveCfg = Release|Any CPU
		{AE75C293-4436-4E20-A846-F382656DAC2B}.Staging|Mixed Platforms.Build.0 = Release|Any CPU
		{AE75C293-4436-4E20-A846-F382656DAC2B}.Staging|x64.ActiveCfg = Release|Any CPU
		{AE75C293-4436-4E20-A846-F382656DAC2B}.Staging|x64.Build.0 = Release|Any CPU
		{AE75C293-4436-4E20-A846-F382656DAC2B}.Staging|x86.ActiveCfg = Release|Any CPU
		{AE75C293-4436-4E20-A846-F382656DAC2B}.Staging|x86.Build.0 = Release|Any CPU
