﻿		{6C8593BB-1AB5-4978-9C36-3EAC346B854A}.Ad-Hoc|Any CPU.ActiveCfg = Release|Any CPU
		{6C8593BB-1AB5-4978-9C36-3EAC346B854A}.Ad-Hoc|Any CPU.Build.0 = Release|Any CPU
		{6C8593BB-1AB5-4978-9C36-3EAC346B854A}.Ad-Hoc|ARM.ActiveCfg = Release|Any CPU
		{6C8593BB-1AB5-4978-9C36-3EAC346B854A}.Ad-Hoc|ARM.Build.0 = Release|Any CPU
		{6C8593BB-1AB5-4978-9C36-3EAC346B854A}.Ad-Hoc|iPhone.ActiveCfg = Release|Any CPU
		{6C8593BB-1AB5-4978-9C36-3EAC346B854A}.Ad-Hoc|iPhone.Build.0 = Release|Any CPU
		{6C8593BB-1AB5-4978-9C36-3EAC346B854A}.Ad-Hoc|iPhoneSimulator.ActiveCfg = Release|Any CPU
		{6C8593BB-1AB5-4978-9C36-3EAC346B854A}.Ad-Hoc|iPhoneSimulator.Build.0 = Release|Any CPU
		{6C8593BB-1AB5-4978-9C36-3EAC346B854A}.Ad-Hoc|Mixed Platforms.ActiveCfg = Release|Any CPU
		{6C8593BB-1AB5-4978-9C36-3EAC346B854A}.Ad-Hoc|Mixed Platforms.Build.0 = Release|Any CPU
		{6C8593BB-1AB5-4978-9C36-3EAC346B854A}.Ad-Hoc|x64.ActiveCfg = Release|Any CPU
		{6C8593BB-1AB5-4978-9C36-3EAC346B854A}.Ad-Hoc|x64.Build.0 = Release|Any CPU
		{6C8593BB-1AB5-4978-9C36-3EAC346B854A}.Ad-Hoc|x86.ActiveCfg = Release|Any CPU
		{6C8593BB-1AB5-4978-9C36-3EAC346B854A}.Ad-Hoc|x86.Build.0 = Release|Any CPU
		{6C8593BB-1AB5-4978-9C36-3EAC346B854A}.AppStore|Any CPU.ActiveCfg = Release|Any CPU
		{6C8593BB-1AB5-4978-9C36-3EAC346B854A}.AppStore|Any CPU.Build.0 = Release|Any CPU
		{6C8593BB-1AB5-4978-9C36-3EAC346B854A}.AppStore|ARM.ActiveCfg = Release|Any CPU
		{6C8593BB-1AB5-4978-9C36-3EAC346B854A}.AppStore|ARM.Build.0 = Release|Any CPU
		{6C8593BB-1AB5-4978-9C36-3EAC346B854A}.AppStore|iPhone.ActiveCfg = Release|Any CPU
		{6C8593BB-1AB5-4978-9C36-3EAC346B854A}.AppStore|iPhone.Build.0 = Release|Any CPU
		{6C8593BB-1AB5-4978-9C36-3EAC346B854A}.AppStore|iPhoneSimulator.ActiveCfg = Release|Any CPU
		{6C8593BB-1AB5-4978-9C36-3EAC346B854A}.AppStore|iPhoneSimulator.Build.0 = Release|Any CPU
		{6C8593BB-1AB5-4978-9C36-3EAC346B854A}.AppStore|Mixed Platforms.ActiveCfg = Release|Any CPU
		{6C8593BB-1AB5-4978-9C36-3EAC346B854A}.AppStore|Mixed Platforms.Build.0 = Release|Any CPU
		{6C8593BB-1AB5-4978-9C36-3EAC346B854A}.AppStore|x64.ActiveCfg = Release|Any CPU
		{6C8593BB-1AB5-4978-9C36-3EAC346B854A}.AppStore|x64.Build.0 = Release|Any CPU
		{6C8593BB-1AB5-4978-9C36-3EAC346B854A}.AppStore|x86.ActiveCfg = Release|Any CPU
		{6C8593BB-1AB5-4978-9C36-3EAC346B854A}.AppStore|x86.Build.0 = Release|Any CPU
		{6C8593BB-1AB5-4978-9C36-3EAC346B854A}.Debug|Any CPU.ActiveCfg = Debug|Any CPU
		{6C8593BB-1AB5-4978-9C36-3EAC346B854A}.Debug|Any CPU.Build.0 = Debug|Any CPU
		{6C8593BB-1AB5-4978-9C36-3EAC346B854A}.Debug|ARM.ActiveCfg = Debug|Any CPU
		{6C8593BB-1AB5-4978-9C36-3EAC346B854A}.Debug|ARM.Build.0 = Debug|Any CPU
		{6C8593BB-1AB5-4978-9C36-3EAC346B854A}.Debug|iPhone.ActiveCfg = Debug|Any CPU
		{6C8593BB-1AB5-4978-9C36-3EAC346B854A}.Debug|iPhone.Build.0 = Debug|Any CPU
		{6C8593BB-1AB5-4978-9C36-3EAC346B854A}.Debug|iPhoneSimulator.ActiveCfg = Debug|Any CPU
		{6C8593BB-1AB5-4978-9C36-3EAC346B854A}.Debug|iPhoneSimulator.Build.0 = Debug|Any CPU
		{6C8593BB-1AB5-4978-9C36-3EAC346B854A}.Debug|Mixed Platforms.ActiveCfg = Debug|Any CPU
		{6C8593BB-1AB5-4978-9C36-3EAC346B854A}.Debug|Mixed Platforms.Build.0 = Debug|Any CPU
		{6C8593BB-1AB5-4978-9C36-3EAC346B854A}.Debug|x64.ActiveCfg = Debug|Any CPU
		{6C8593BB-1AB5-4978-9C36-3EAC346B854A}.Debug|x64.Build.0 = Debug|Any CPU
		{6C8593BB-1AB5-4978-9C36-3EAC346B854A}.Debug|x86.ActiveCfg = Debug|Any CPU
		{6C8593BB-1AB5-4978-9C36-3EAC346B854A}.Debug|x86.Build.0 = Debug|Any CPU
		{6C8593BB-1AB5-4978-9C36-3EAC346B854A}.Dev|Any CPU.ActiveCfg = Debug|Any CPU
		{6C8593BB-1AB5-4978-9C36-3EAC346B854A}.Dev|Any CPU.Build.0 = Debug|Any CPU
		{6C8593BB-1AB5-4978-9C36-3EAC346B854A}.Dev|ARM.ActiveCfg = Debug|Any CPU
		{6C8593BB-1AB5-4978-9C36-3EAC346B854A}.Dev|ARM.Build.0 = Debug|Any CPU
		{6C8593BB-1AB5-4978-9C36-3EAC346B854A}.Dev|iPhone.ActiveCfg = Debug|Any CPU
		{6C8593BB-1AB5-4978-9C36-3EAC346B854A}.Dev|iPhone.Build.0 = Debug|Any CPU
		{6C8593BB-1AB5-4978-9C36-3EAC346B854A}.Dev|iPhoneSimulator.ActiveCfg = Debug|Any CPU
		{6C8593BB-1AB5-4978-9C36-3EAC346B854A}.Dev|iPhoneSimulator.Build.0 = Debug|Any CPU
		{6C8593BB-1AB5-4978-9C36-3EAC346B854A}.Dev|Mixed Platforms.ActiveCfg = Debug|Any CPU
		{6C8593BB-1AB5-4978-9C36-3EAC346B854A}.Dev|Mixed Platforms.Build.0 = Debug|Any CPU
		{6C8593BB-1AB5-4978-9C36-3EAC346B854A}.Dev|x64.ActiveCfg = Debug|Any CPU
		{6C8593BB-1AB5-4978-9C36-3EAC346B854A}.Dev|x64.Build.0 = Debug|Any CPU
		{6C8593BB-1AB5-4978-9C36-3EAC346B854A}.Dev|x86.ActiveCfg = Debug|Any CPU
		{6C8593BB-1AB5-4978-9C36-3EAC346B854A}.Dev|x86.Build.0 = Debug|Any CPU
		{6C8593BB-1AB5-4978-9C36-3EAC346B854A}.Prod|Any CPU.ActiveCfg = Release|Any CPU
		{6C8593BB-1AB5-4978-9C36-3EAC346B854A}.Prod|Any CPU.Build.0 = Release|Any CPU
		{6C8593BB-1AB5-4978-9C36-3EAC346B854A}.Prod|ARM.ActiveCfg = Release|Any CPU
		{6C8593BB-1AB5-4978-9C36-3EAC346B854A}.Prod|ARM.Build.0 = Release|Any CPU
		{6C8593BB-1AB5-4978-9C36-3EAC346B854A}.Prod|iPhone.ActiveCfg = Release|Any CPU
		{6C8593BB-1AB5-4978-9C36-3EAC346B854A}.Prod|iPhone.Build.0 = Release|Any CPU
		{6C8593BB-1AB5-4978-9C36-3EAC346B854A}.Prod|iPhoneSimulator.ActiveCfg = Release|Any CPU
		{6C8593BB-1AB5-4978-9C36-3EAC346B854A}.Prod|iPhoneSimulator.Build.0 = Release|Any CPU
		{6C8593BB-1AB5-4978-9C36-3EAC346B854A}.Prod|Mixed Platforms.ActiveCfg = Release|Any CPU
		{6C8593BB-1AB5-4978-9C36-3EAC346B854A}.Prod|Mixed Platforms.Build.0 = Release|Any CPU
		{6C8593BB-1AB5-4978-9C36-3EAC346B854A}.Prod|x64.ActiveCfg = Release|Any CPU
		{6C8593BB-1AB5-4978-9C36-3EAC346B854A}.Prod|x64.Build.0 = Release|Any CPU
		{6C8593BB-1AB5-4978-9C36-3EAC346B854A}.Prod|x86.ActiveCfg = Release|Any CPU
		{6C8593BB-1AB5-4978-9C36-3EAC346B854A}.Prod|x86.Build.0 = Release|Any CPU
		{6C8593BB-1AB5-4978-9C36-3EAC346B854A}.Release|Any CPU.ActiveCfg = Release|Any CPU
		{6C8593BB-1AB5-4978-9C36-3EAC346B854A}.Release|Any CPU.Build.0 = Release|Any CPU
		{6C8593BB-1AB5-4978-9C36-3EAC346B854A}.Release|ARM.ActiveCfg = Release|Any CPU
		{6C8593BB-1AB5-4978-9C36-3EAC346B854A}.Release|ARM.Build.0 = Release|Any CPU
		{6C8593BB-1AB5-4978-9C36-3EAC346B854A}.Release|iPhone.ActiveCfg = Release|Any CPU
		{6C8593BB-1AB5-4978-9C36-3EAC346B854A}.Release|iPhone.Build.0 = Release|Any CPU
		{6C8593BB-1AB5-4978-9C36-3EAC346B854A}.Release|iPhoneSimulator.ActiveCfg = Release|Any CPU
		{6C8593BB-1AB5-4978-9C36-3EAC346B854A}.Release|iPhoneSimulator.Build.0 = Release|Any CPU
		{6C8593BB-1AB5-4978-9C36-3EAC346B854A}.Release|Mixed Platforms.ActiveCfg = Release|Any CPU
		{6C8593BB-1AB5-4978-9C36-3EAC346B854A}.Release|Mixed Platforms.Build.0 = Release|Any CPU
		{6C8593BB-1AB5-4978-9C36-3EAC346B854A}.Release|x64.ActiveCfg = Release|Any CPU
		{6C8593BB-1AB5-4978-9C36-3EAC346B854A}.Release|x64.Build.0 = Release|Any CPU
		{6C8593BB-1AB5-4978-9C36-3EAC346B854A}.Release|x86.ActiveCfg = Release|Any CPU
		{6C8593BB-1AB5-4978-9C36-3EAC346B854A}.Release|x86.Build.0 = Release|Any CPU
		{6C8593BB-1AB5-4978-9C36-3EAC346B854A}.Staging|Any CPU.ActiveCfg = Release|Any CPU
		{6C8593BB-1AB5-4978-9C36-3EAC346B854A}.Staging|Any CPU.Build.0 = Release|Any CPU
		{6C8593BB-1AB5-4978-9C36-3EAC346B854A}.Staging|ARM.ActiveCfg = Release|Any CPU
		{6C8593BB-1AB5-4978-9C36-3EAC346B854A}.Staging|ARM.Build.0 = Release|Any CPU
		{6C8593BB-1AB5-4978-9C36-3EAC346B854A}.Staging|iPhone.ActiveCfg = Release|Any CPU
		{6C8593BB-1AB5-4978-9C36-3EAC346B854A}.Staging|iPhone.Build.0 = Release|Any CPU
		{6C8593BB-1AB5-4978-9C36-3EAC346B854A}.Staging|iPhoneSimulator.ActiveCfg = Release|Any CPU
		{6C8593BB-1AB5-4978-9C36-3EAC346B854A}.Staging|iPhoneSimulator.Build.0 = Release|Any CPU
		{6C8593BB-1AB5-4978-9C36-3EAC346B854A}.Staging|Mixed Platforms.ActiveCfg = Release|Any CPU
		{6C8593BB-1AB5-4978-9C36-3EAC346B854A}.Staging|Mixed Platforms.Build.0 = Release|Any CPU
		{6C8593BB-1AB5-4978-9C36-3EAC346B854A}.Staging|x64.ActiveCfg = Release|Any CPU
		{6C8593BB-1AB5-4978-9C36-3EAC346B854A}.Staging|x64.Build.0 = Release|Any CPU
		{6C8593BB-1AB5-4978-9C36-3EAC346B854A}.Staging|x86.ActiveCfg = Release|Any CPU
		{6C8593BB-1AB5-4978-9C36-3EAC346B854A}.Staging|x86.Build.0 = Release|Any CPU
